{
  "contractName": "MintedCrowdsale",
  "abi": [
    {
      "anonymous": false,
      "inputs": [
        {
          "indexed": true,
          "internalType": "address",
          "name": "purchaser",
          "type": "address"
        },
        {
          "indexed": true,
          "internalType": "address",
          "name": "beneficiary",
          "type": "address"
        },
        {
          "indexed": false,
          "internalType": "uint256",
          "name": "value",
          "type": "uint256"
        },
        {
          "indexed": false,
          "internalType": "uint256",
          "name": "amount",
          "type": "uint256"
        }
      ],
      "name": "TokensPurchased",
      "type": "event"
    },
    {
      "inputs": [
        {
          "internalType": "address",
          "name": "beneficiary",
          "type": "address"
        }
      ],
      "name": "buyTokens",
      "outputs": [],
      "stateMutability": "payable",
      "type": "function"
    },
    {
      "inputs": [],
      "name": "rate",
      "outputs": [
        {
          "internalType": "uint256",
          "name": "",
          "type": "uint256"
        }
      ],
      "stateMutability": "view",
      "type": "function"
    },
    {
      "inputs": [],
      "name": "token",
      "outputs": [
        {
          "internalType": "contract IERC20",
          "name": "",
          "type": "address"
        }
      ],
      "stateMutability": "view",
      "type": "function"
    },
    {
      "inputs": [],
      "name": "wallet",
      "outputs": [
        {
          "internalType": "address payable",
          "name": "",
          "type": "address"
        }
      ],
      "stateMutability": "view",
      "type": "function"
    },
    {
      "inputs": [],
      "name": "weiRaised",
      "outputs": [
        {
          "internalType": "uint256",
          "name": "",
          "type": "uint256"
        }
      ],
      "stateMutability": "view",
      "type": "function"
    },
    {
      "stateMutability": "payable",
      "type": "receive"
    }
  ],
  "metadata": "{\"compiler\":{\"version\":\"0.6.1+commit.e6f7d5a4\"},\"language\":\"Solidity\",\"output\":{\"abi\":[{\"anonymous\":false,\"inputs\":[{\"indexed\":true,\"internalType\":\"address\",\"name\":\"purchaser\",\"type\":\"address\"},{\"indexed\":true,\"internalType\":\"address\",\"name\":\"beneficiary\",\"type\":\"address\"},{\"indexed\":false,\"internalType\":\"uint256\",\"name\":\"value\",\"type\":\"uint256\"},{\"indexed\":false,\"internalType\":\"uint256\",\"name\":\"amount\",\"type\":\"uint256\"}],\"name\":\"TokensPurchased\",\"type\":\"event\"},{\"inputs\":[{\"internalType\":\"address\",\"name\":\"beneficiary\",\"type\":\"address\"}],\"name\":\"buyTokens\",\"outputs\":[],\"stateMutability\":\"payable\",\"type\":\"function\"},{\"inputs\":[],\"name\":\"rate\",\"outputs\":[{\"internalType\":\"uint256\",\"name\":\"\",\"type\":\"uint256\"}],\"stateMutability\":\"view\",\"type\":\"function\"},{\"inputs\":[],\"name\":\"token\",\"outputs\":[{\"internalType\":\"contract IERC20\",\"name\":\"\",\"type\":\"address\"}],\"stateMutability\":\"view\",\"type\":\"function\"},{\"inputs\":[],\"name\":\"wallet\",\"outputs\":[{\"internalType\":\"address payable\",\"name\":\"\",\"type\":\"address\"}],\"stateMutability\":\"view\",\"type\":\"function\"},{\"inputs\":[],\"name\":\"weiRaised\",\"outputs\":[{\"internalType\":\"uint256\",\"name\":\"\",\"type\":\"uint256\"}],\"stateMutability\":\"view\",\"type\":\"function\"},{\"stateMutability\":\"payable\",\"type\":\"receive\"}],\"devdoc\":{\"details\":\"Extension of Crowdsale contract whose tokens are minted in each purchase. Token ownership should be transferred to MintedCrowdsale for minting.\",\"methods\":{\"buyTokens(address)\":{\"details\":\"low level token purchase ***DO NOT OVERRIDE*** This function has a non-reentrancy guard, so it shouldn't be called by another `nonReentrant` function.\",\"params\":{\"beneficiary\":\"Recipient of the token purchase\"}}},\"title\":\"MintedCrowdsale\"},\"userdoc\":{\"methods\":{}}},\"settings\":{\"compilationTarget\":{\"project:/contracts/MintedCrowdsale.sol\":\"MintedCrowdsale\"},\"evmVersion\":\"istanbul\",\"libraries\":{},\"metadata\":{\"bytecodeHash\":\"ipfs\"},\"optimizer\":{\"enabled\":false,\"runs\":200},\"remappings\":[]},\"sources\":{\"@openzeppelin/contracts/GSN/Context.sol\":{\"keccak256\":\"0x0de74dfa6b37943c1b834cbd8fb7a8d052e5ff80c7adb33692102dd6cd2985e9\",\"urls\":[\"bzz-raw://9d2d827fcf4a838f5821732c0acd6a40d21c2a5a2cfe2563feec91465f47bb60\",\"dweb:/ipfs/Qmex3wMKf5Sghbfvr288RUg1kP2uAyTMf11w83WbMbpQQc\"]},\"@openzeppelin/contracts/access/Roles.sol\":{\"keccak256\":\"0x56cc02ac08971e2bb16c7095690730a47f29d401df9079200d3e16b8a2bd7355\",\"urls\":[\"bzz-raw://03e5a8d9258ba9d8e839ecf0be5c3262af2bd43397152bbef879eacdf90aa1f3\",\"dweb:/ipfs/QmZo3t6mu8WTUwQFoUWuF4kZFxXEkrwXK5adcs6RyfCz9X\"]},\"@openzeppelin/contracts/math/SafeMath.sol\":{\"keccak256\":\"0xe4ed9d633e8e678e8ece3756e4002cc7989b72cd29a17ecdacdabf4fd48820a7\",\"urls\":[\"bzz-raw://03a55c81a7d4c93a1ca6d9b931830c1fde2799bfbbf5841321f67e7b056c36c2\",\"dweb:/ipfs/QmbcgdfB278NvzVZKjA7Jf1NjSeCCQ2277mJGL4UskyS56\"]},\"@openzeppelin/contracts/token/ERC20/ERC20.sol\":{\"keccak256\":\"0xa43329c05d4d75bb1f2e952b54cd40c7c197d3923b5927e61815cdac21a14dce\",\"urls\":[\"bzz-raw://f3c6697a015140d3a341499debb51032ec681f1d7123f54a9a272086cf606bbc\",\"dweb:/ipfs/QmRT1hwHzNoCWLLDBEBRXfGNjRZZyawi2wgrtRz24B8jLa\"]},\"@openzeppelin/contracts/token/ERC20/IERC20.sol\":{\"keccak256\":\"0x708ae901e214e044a5c922748462157b9be162b3620aa56d7c0e7258f66aee1d\",\"urls\":[\"bzz-raw://c287ed9989e5f16114553a30f4ba3794be657f90598f101f7b92ce5859f46978\",\"dweb:/ipfs/QmeFeDCzfhhBTaY9NE9wREmrBRETvn4k3mo2FejqskVMtg\"]},\"@openzeppelin/contracts/token/ERC20/SafeERC20.sol\":{\"keccak256\":\"0x694157db506e282b703e469c9e5843d8a0120947a6de6b6e8ccd8d808d037234\",\"urls\":[\"bzz-raw://e83680e0074c54c2bd7ddf1e6d73525d9c8027d43cb60706acbe12b81c4276f7\",\"dweb:/ipfs/QmZ5C4duBeYSGej3KrURVGUUMUGjFAKZdNKPRGhV2uJ67A\"]},\"@openzeppelin/contracts/utils/Address.sol\":{\"keccak256\":\"0x0dda04d1cbd7c09e7187c8d5c30074cc32f17e247adb84034c0b3e40dd96c74f\",\"urls\":[\"bzz-raw://2f06fa27e220da3d4e949b69ffc6225091ec031ad64cd5f9e9ea7c66c54304ae\",\"dweb:/ipfs/QmYBiLxdMBbhevWsGLLLSjpV92FqDVv5tB2LwiQsgwvLQz\"]},\"@openzeppelin/contracts/utils/ReentrancyGuard.sol\":{\"keccak256\":\"0x91e57befc48dddbde2741ca3fba6e18c2197c3a090e13078f69730863d0df84c\",\"urls\":[\"bzz-raw://0c0eacfbd561ce70edb4c689305765b6f467f3f1143c09df3dee029295bd19f9\",\"dweb:/ipfs/QmdKr3ahHTXDeJtFgTz3rK76o3LG6EuY3FGvPC6yyUC97m\"]},\"project:/contracts/Crowdsale.sol\":{\"keccak256\":\"0x8dda9d42858f5d8ff776ac6d9cbd5e413ebc47ecbc293c7ff1d59e09b66359db\",\"urls\":[\"bzz-raw://118a5eec8960a7dbfa21ffa8f21ff148e43bf51d65f55c028ff3db067a00fb49\",\"dweb:/ipfs/QmbQAg4JKdTzV3XevEfaSiARBfKbXenmQZytuaqcJhQn8A\"]},\"project:/contracts/ERC20Mintable.sol\":{\"keccak256\":\"0x4703c43d2662b2668469b3501cb95f9778988044bec7a86e6b8d625a270582e5\",\"urls\":[\"bzz-raw://d3bed0190398761c2f889bbf694de46512298e201fe972ea9c6f80f2a1b22ca8\",\"dweb:/ipfs/QmTnuxjdFs47Y7kKRPjb1FvYYxi7sxkRLqjLg3XHgZwgVd\"]},\"project:/contracts/MintedCrowdsale.sol\":{\"keccak256\":\"0x6c3c399e79ec8e7c64775f953f30f2853a35cf4f87d7c4640a9979a6343a7d16\",\"urls\":[\"bzz-raw://b38c5906de1b3d382c58ffe239190d644c44f81a32dd95e7439e97aca43993cc\",\"dweb:/ipfs/QmPJ8QGfXbGaozNRWGD9Xa4EeH7XXz34BTQXziVC2vMM3v\"]},\"project:/contracts/MinterRole.sol\":{\"keccak256\":\"0x809d83becbdac8e0b85c068b31d6a048897ada97b87a6760eb4cd02713449f14\",\"urls\":[\"bzz-raw://f4d81ae762f7ebe65675a44cdd0f19750818510b52587a5a9a003d5d159a3f16\",\"dweb:/ipfs/QmZq4GRXRZogRnZ3Z3EbEquCuX6aRiRZLpx5ot4xWBguuB\"]}},\"version\":1}",
  "bytecode": "0x",
  "deployedBytecode": "0x",
  "sourceMap": "",
  "deployedSourceMap": "",
  "source": "pragma solidity ^0.6.0;\n\nimport \"./Crowdsale.sol\";\nimport \"./ERC20Mintable.sol\";\n\n/**\n * @title MintedCrowdsale\n * @dev Extension of Crowdsale contract whose tokens are minted in each purchase.\n * Token ownership should be transferred to MintedCrowdsale for minting.\n */\nabstract contract MintedCrowdsale is Crowdsale {\n    /**\n     * @dev Overrides delivery by minting tokens upon purchase.\n     * @param beneficiary Token purchaser\n     * @param tokenAmount Number of tokens to be minted\n     */\n    function _deliverTokens(address beneficiary, uint256 tokenAmount) internal virtual override {\n        // Potentially dangerous assumption about the type of the token.\n        require(\n            ERC20Mintable(address(token())).mint(beneficiary, tokenAmount),\n                \"MintedCrowdsale: minting failed\"\n        );\n    }\n}\n",
  "sourcePath": "/home/mar/Documentos/Udemy course 2/s06+-+tokenization/s06 - tokenization/contracts/MintedCrowdsale.sol",
  "ast": {
    "absolutePath": "project:/contracts/MintedCrowdsale.sol",
    "exportedSymbols": {
      "MintedCrowdsale": [
        1758
      ]
    },
    "id": 1759,
    "nodeType": "SourceUnit",
    "nodes": [
      {
        "id": 1729,
        "literals": [
          "solidity",
          "^",
          "0.6",
          ".0"
        ],
        "nodeType": "PragmaDirective",
        "src": "0:23:14"
      },
      {
        "absolutePath": "project:/contracts/Crowdsale.sol",
        "file": "./Crowdsale.sol",
        "id": 1730,
        "nodeType": "ImportDirective",
        "scope": 1759,
        "sourceUnit": 1613,
        "src": "25:25:14",
        "symbolAliases": [],
        "unitAlias": ""
      },
      {
        "absolutePath": "project:/contracts/ERC20Mintable.sol",
        "file": "./ERC20Mintable.sol",
        "id": 1731,
        "nodeType": "ImportDirective",
        "scope": 1759,
        "sourceUnit": 1641,
        "src": "51:29:14",
        "symbolAliases": [],
        "unitAlias": ""
      },
      {
        "abstract": true,
        "baseContracts": [
          {
            "arguments": null,
            "baseName": {
              "contractScope": null,
              "id": 1732,
              "name": "Crowdsale",
              "nodeType": "UserDefinedTypeName",
              "referencedDeclaration": 1612,
              "src": "308:9:14",
              "typeDescriptions": {
                "typeIdentifier": "t_contract$_Crowdsale_$1612",
                "typeString": "contract Crowdsale"
              }
            },
            "id": 1733,
            "nodeType": "InheritanceSpecifier",
            "src": "308:9:14"
          }
        ],
        "contractDependencies": [
          26,
          1331,
          1612
        ],
        "contractKind": "contract",
        "documentation": "@title MintedCrowdsale\n@dev Extension of Crowdsale contract whose tokens are minted in each purchase.\nToken ownership should be transferred to MintedCrowdsale for minting.",
        "fullyImplemented": false,
        "id": 1758,
        "linearizedBaseContracts": [
          1758,
          1612,
          1331,
          26
        ],
        "name": "MintedCrowdsale",
        "nodeType": "ContractDefinition",
        "nodes": [
          {
            "baseFunctions": [
              1566
            ],
            "body": {
              "id": 1756,
              "nodeType": "Block",
              "src": "594:234:14",
              "statements": [
                {
                  "expression": {
                    "argumentTypes": null,
                    "arguments": [
                      {
                        "argumentTypes": null,
                        "arguments": [
                          {
                            "argumentTypes": null,
                            "id": 1750,
                            "name": "beneficiary",
                            "nodeType": "Identifier",
                            "overloadedDeclarations": [],
                            "referencedDeclaration": 1735,
                            "src": "735:11:14",
                            "typeDescriptions": {
                              "typeIdentifier": "t_address",
                              "typeString": "address"
                            }
                          },
                          {
                            "argumentTypes": null,
                            "id": 1751,
                            "name": "tokenAmount",
                            "nodeType": "Identifier",
                            "overloadedDeclarations": [],
                            "referencedDeclaration": 1737,
                            "src": "748:11:14",
                            "typeDescriptions": {
                              "typeIdentifier": "t_uint256",
                              "typeString": "uint256"
                            }
                          }
                        ],
                        "expression": {
                          "argumentTypes": [
                            {
                              "typeIdentifier": "t_address",
                              "typeString": "address"
                            },
                            {
                              "typeIdentifier": "t_uint256",
                              "typeString": "uint256"
                            }
                          ],
                          "expression": {
                            "argumentTypes": null,
                            "arguments": [
                              {
                                "argumentTypes": null,
                                "arguments": [
                                  {
                                    "argumentTypes": null,
                                    "arguments": [],
                                    "expression": {
                                      "argumentTypes": [],
                                      "id": 1745,
                                      "name": "token",
                                      "nodeType": "Identifier",
                                      "overloadedDeclarations": [],
                                      "referencedDeclaration": 1435,
                                      "src": "720:5:14",
                                      "typeDescriptions": {
                                        "typeIdentifier": "t_function_internal_view$__$returns$_t_contract$_IERC20_$997_$",
                                        "typeString": "function () view returns (contract IERC20)"
                                      }
                                    },
                                    "id": 1746,
                                    "isConstant": false,
                                    "isLValue": false,
                                    "isPure": false,
                                    "kind": "functionCall",
                                    "lValueRequested": false,
                                    "names": [],
                                    "nodeType": "FunctionCall",
                                    "src": "720:7:14",
                                    "tryCall": false,
                                    "typeDescriptions": {
                                      "typeIdentifier": "t_contract$_IERC20_$997",
                                      "typeString": "contract IERC20"
                                    }
                                  }
                                ],
                                "expression": {
                                  "argumentTypes": [
                                    {
                                      "typeIdentifier": "t_contract$_IERC20_$997",
                                      "typeString": "contract IERC20"
                                    }
                                  ],
                                  "id": 1744,
                                  "isConstant": false,
                                  "isLValue": false,
                                  "isPure": true,
                                  "lValueRequested": false,
                                  "nodeType": "ElementaryTypeNameExpression",
                                  "src": "712:7:14",
                                  "typeDescriptions": {
                                    "typeIdentifier": "t_type$_t_address_$",
                                    "typeString": "type(address)"
                                  },
                                  "typeName": {
                                    "id": 1743,
                                    "name": "address",
                                    "nodeType": "ElementaryTypeName",
                                    "src": "712:7:14",
                                    "typeDescriptions": {
                                      "typeIdentifier": null,
                                      "typeString": null
                                    }
                                  }
                                },
                                "id": 1747,
                                "isConstant": false,
                                "isLValue": false,
                                "isPure": false,
                                "kind": "typeConversion",
                                "lValueRequested": false,
                                "names": [],
                                "nodeType": "FunctionCall",
                                "src": "712:16:14",
                                "tryCall": false,
                                "typeDescriptions": {
                                  "typeIdentifier": "t_address",
                                  "typeString": "address"
                                }
                              }
                            ],
                            "expression": {
                              "argumentTypes": [
                                {
                                  "typeIdentifier": "t_address",
                                  "typeString": "address"
                                }
                              ],
                              "id": 1742,
                              "name": "ERC20Mintable",
                              "nodeType": "Identifier",
                              "overloadedDeclarations": [],
                              "referencedDeclaration": 1640,
                              "src": "698:13:14",
                              "typeDescriptions": {
                                "typeIdentifier": "t_type$_t_contract$_ERC20Mintable_$1640_$",
                                "typeString": "type(contract ERC20Mintable)"
                              }
                            },
                            "id": 1748,
                            "isConstant": false,
                            "isLValue": false,
                            "isPure": false,
                            "kind": "typeConversion",
                            "lValueRequested": false,
                            "names": [],
                            "nodeType": "FunctionCall",
                            "src": "698:31:14",
                            "tryCall": false,
                            "typeDescriptions": {
                              "typeIdentifier": "t_contract$_ERC20Mintable_$1640",
                              "typeString": "contract ERC20Mintable"
                            }
                          },
                          "id": 1749,
                          "isConstant": false,
                          "isLValue": false,
                          "isPure": false,
                          "lValueRequested": false,
                          "memberName": "mint",
                          "nodeType": "MemberAccess",
                          "referencedDeclaration": 1639,
                          "src": "698:36:14",
                          "typeDescriptions": {
                            "typeIdentifier": "t_function_external_nonpayable$_t_address_$_t_uint256_$returns$_t_bool_$",
                            "typeString": "function (address,uint256) external returns (bool)"
                          }
                        },
                        "id": 1752,
                        "isConstant": false,
                        "isLValue": false,
                        "isPure": false,
                        "kind": "functionCall",
                        "lValueRequested": false,
                        "names": [],
                        "nodeType": "FunctionCall",
                        "src": "698:62:14",
                        "tryCall": false,
                        "typeDescriptions": {
                          "typeIdentifier": "t_bool",
                          "typeString": "bool"
                        }
                      },
                      {
                        "argumentTypes": null,
                        "hexValue": "4d696e74656443726f776473616c653a206d696e74696e67206661696c6564",
                        "id": 1753,
                        "isConstant": false,
                        "isLValue": false,
                        "isPure": true,
                        "kind": "string",
                        "lValueRequested": false,
                        "nodeType": "Literal",
                        "src": "778:33:14",
                        "subdenomination": null,
                        "typeDescriptions": {
                          "typeIdentifier": "t_stringliteral_d0eac45d7b8513926ae2e01dfc6ebd8082fa88af4d89904f45e3d97f75d97ab5",
                          "typeString": "literal_string \"MintedCrowdsale: minting failed\""
                        },
                        "value": "MintedCrowdsale: minting failed"
                      }
                    ],
                    "expression": {
                      "argumentTypes": [
                        {
                          "typeIdentifier": "t_bool",
                          "typeString": "bool"
                        },
                        {
                          "typeIdentifier": "t_stringliteral_d0eac45d7b8513926ae2e01dfc6ebd8082fa88af4d89904f45e3d97f75d97ab5",
                          "typeString": "literal_string \"MintedCrowdsale: minting failed\""
                        }
                      ],
                      "id": 1741,
                      "name": "require",
                      "nodeType": "Identifier",
                      "overloadedDeclarations": [
                        2004,
                        2005
                      ],
                      "referencedDeclaration": 2005,
                      "src": "677:7:14",
                      "typeDescriptions": {
                        "typeIdentifier": "t_function_require_pure$_t_bool_$_t_string_memory_ptr_$returns$__$",
                        "typeString": "function (bool,string memory) pure"
                      }
                    },
                    "id": 1754,
                    "isConstant": false,
                    "isLValue": false,
                    "isPure": false,
                    "kind": "functionCall",
                    "lValueRequested": false,
                    "names": [],
                    "nodeType": "FunctionCall",
                    "src": "677:144:14",
                    "tryCall": false,
                    "typeDescriptions": {
                      "typeIdentifier": "t_tuple$__$",
                      "typeString": "tuple()"
                    }
                  },
                  "id": 1755,
                  "nodeType": "ExpressionStatement",
                  "src": "677:144:14"
                }
              ]
            },
            "documentation": "@dev Overrides delivery by minting tokens upon purchase.\n@param beneficiary Token purchaser\n@param tokenAmount Number of tokens to be minted",
            "id": 1757,
            "implemented": true,
            "kind": "function",
            "modifiers": [],
            "name": "_deliverTokens",
            "nodeType": "FunctionDefinition",
            "overrides": {
              "id": 1739,
              "nodeType": "OverrideSpecifier",
              "overrides": [],
              "src": "585:8:14"
            },
            "parameters": {
              "id": 1738,
              "nodeType": "ParameterList",
              "parameters": [
                {
                  "constant": false,
                  "id": 1735,
                  "name": "beneficiary",
                  "nodeType": "VariableDeclaration",
                  "overrides": null,
                  "scope": 1757,
                  "src": "526:19:14",
                  "stateVariable": false,
                  "storageLocation": "default",
                  "typeDescriptions": {
                    "typeIdentifier": "t_address",
                    "typeString": "address"
                  },
                  "typeName": {
                    "id": 1734,
                    "name": "address",
                    "nodeType": "ElementaryTypeName",
                    "src": "526:7:14",
                    "stateMutability": "nonpayable",
                    "typeDescriptions": {
                      "typeIdentifier": "t_address",
                      "typeString": "address"
                    }
                  },
                  "value": null,
                  "visibility": "internal"
                },
                {
                  "constant": false,
                  "id": 1737,
                  "name": "tokenAmount",
                  "nodeType": "VariableDeclaration",
                  "overrides": null,
                  "scope": 1757,
                  "src": "547:19:14",
                  "stateVariable": false,
                  "storageLocation": "default",
                  "typeDescriptions": {
                    "typeIdentifier": "t_uint256",
                    "typeString": "uint256"
                  },
                  "typeName": {
                    "id": 1736,
                    "name": "uint256",
                    "nodeType": "ElementaryTypeName",
                    "src": "547:7:14",
                    "typeDescriptions": {
                      "typeIdentifier": "t_uint256",
                      "typeString": "uint256"
                    }
                  },
                  "value": null,
                  "visibility": "internal"
                }
              ],
              "src": "525:42:14"
            },
            "returnParameters": {
              "id": 1740,
              "nodeType": "ParameterList",
              "parameters": [],
              "src": "594:0:14"
            },
            "scope": 1758,
            "src": "502:326:14",
            "stateMutability": "nonpayable",
            "virtual": true,
            "visibility": "internal"
          }
        ],
        "scope": 1759,
        "src": "271:559:14"
      }
    ],
    "src": "0:831:14"
  },
  "legacyAST": {
    "attributes": {
      "absolutePath": "project:/contracts/MintedCrowdsale.sol",
      "exportedSymbols": {
        "MintedCrowdsale": [
          1758
        ]
      }
    },
    "children": [
      {
        "attributes": {
          "literals": [
            "solidity",
            "^",
            "0.6",
            ".0"
          ]
        },
        "id": 1729,
        "name": "PragmaDirective",
        "src": "0:23:14"
      },
      {
        "attributes": {
          "SourceUnit": 1613,
          "absolutePath": "project:/contracts/Crowdsale.sol",
          "file": "./Crowdsale.sol",
          "scope": 1759,
          "symbolAliases": [
            null
          ],
          "unitAlias": ""
        },
        "id": 1730,
        "name": "ImportDirective",
        "src": "25:25:14"
      },
      {
        "attributes": {
          "SourceUnit": 1641,
          "absolutePath": "project:/contracts/ERC20Mintable.sol",
          "file": "./ERC20Mintable.sol",
          "scope": 1759,
          "symbolAliases": [
            null
          ],
          "unitAlias": ""
        },
        "id": 1731,
        "name": "ImportDirective",
        "src": "51:29:14"
      },
      {
        "attributes": {
          "abstract": true,
          "contractDependencies": [
            26,
            1331,
            1612
          ],
          "contractKind": "contract",
          "documentation": "@title MintedCrowdsale\n@dev Extension of Crowdsale contract whose tokens are minted in each purchase.\nToken ownership should be transferred to MintedCrowdsale for minting.",
          "fullyImplemented": false,
          "linearizedBaseContracts": [
            1758,
            1612,
            1331,
            26
          ],
          "name": "MintedCrowdsale",
          "scope": 1759
        },
        "children": [
          {
            "attributes": {
              "arguments": null
            },
            "children": [
              {
                "attributes": {
                  "contractScope": null,
                  "name": "Crowdsale",
                  "referencedDeclaration": 1612,
                  "type": "contract Crowdsale"
                },
                "id": 1732,
                "name": "UserDefinedTypeName",
                "src": "308:9:14"
              }
            ],
            "id": 1733,
            "name": "InheritanceSpecifier",
            "src": "308:9:14"
          },
          {
            "attributes": {
              "baseFunctions": [
                1566
              ],
              "documentation": "@dev Overrides delivery by minting tokens upon purchase.\n@param beneficiary Token purchaser\n@param tokenAmount Number of tokens to be minted",
              "implemented": true,
              "isConstructor": false,
              "kind": "function",
              "modifiers": [
                null
              ],
              "name": "_deliverTokens",
              "scope": 1758,
              "stateMutability": "nonpayable",
              "virtual": true,
              "visibility": "internal"
            },
            "children": [
              {
                "attributes": {
                  "overrides": [
                    null
                  ]
                },
                "id": 1739,
                "name": "OverrideSpecifier",
                "src": "585:8:14"
              },
              {
                "children": [
                  {
                    "attributes": {
                      "constant": false,
                      "name": "beneficiary",
                      "overrides": null,
                      "scope": 1757,
                      "stateVariable": false,
                      "storageLocation": "default",
                      "type": "address",
                      "value": null,
                      "visibility": "internal"
                    },
                    "children": [
                      {
                        "attributes": {
                          "name": "address",
                          "stateMutability": "nonpayable",
                          "type": "address"
                        },
                        "id": 1734,
                        "name": "ElementaryTypeName",
                        "src": "526:7:14"
                      }
                    ],
                    "id": 1735,
                    "name": "VariableDeclaration",
                    "src": "526:19:14"
                  },
                  {
                    "attributes": {
                      "constant": false,
                      "name": "tokenAmount",
                      "overrides": null,
                      "scope": 1757,
                      "stateVariable": false,
                      "storageLocation": "default",
                      "type": "uint256",
                      "value": null,
                      "visibility": "internal"
                    },
                    "children": [
                      {
                        "attributes": {
                          "name": "uint256",
                          "type": "uint256"
                        },
                        "id": 1736,
                        "name": "ElementaryTypeName",
                        "src": "547:7:14"
                      }
                    ],
                    "id": 1737,
                    "name": "VariableDeclaration",
                    "src": "547:19:14"
                  }
                ],
                "id": 1738,
                "name": "ParameterList",
                "src": "525:42:14"
              },
              {
                "attributes": {
                  "parameters": [
                    null
                  ]
                },
                "children": [],
                "id": 1740,
                "name": "ParameterList",
                "src": "594:0:14"
              },
              {
                "children": [
                  {
                    "children": [
                      {
                        "attributes": {
                          "argumentTypes": null,
                          "isConstant": false,
                          "isLValue": false,
                          "isPure": false,
                          "isStructConstructorCall": false,
                          "lValueRequested": false,
                          "names": [
                            null
                          ],
                          "tryCall": false,
                          "type": "tuple()",
                          "type_conversion": false
                        },
                        "children": [
                          {
                            "attributes": {
                              "argumentTypes": [
                                {
                                  "typeIdentifier": "t_bool",
                                  "typeString": "bool"
                                },
                                {
                                  "typeIdentifier": "t_stringliteral_d0eac45d7b8513926ae2e01dfc6ebd8082fa88af4d89904f45e3d97f75d97ab5",
                                  "typeString": "literal_string \"MintedCrowdsale: minting failed\""
                                }
                              ],
                              "overloadedDeclarations": [
                                2004,
                                2005
                              ],
                              "referencedDeclaration": 2005,
                              "type": "function (bool,string memory) pure",
                              "value": "require"
                            },
                            "id": 1741,
                            "name": "Identifier",
                            "src": "677:7:14"
                          },
                          {
                            "attributes": {
                              "argumentTypes": null,
                              "isConstant": false,
                              "isLValue": false,
                              "isPure": false,
                              "isStructConstructorCall": false,
                              "lValueRequested": false,
                              "names": [
                                null
                              ],
                              "tryCall": false,
                              "type": "bool",
                              "type_conversion": false
                            },
                            "children": [
                              {
                                "attributes": {
                                  "argumentTypes": [
                                    {
                                      "typeIdentifier": "t_address",
                                      "typeString": "address"
                                    },
                                    {
                                      "typeIdentifier": "t_uint256",
                                      "typeString": "uint256"
                                    }
                                  ],
                                  "isConstant": false,
                                  "isLValue": false,
                                  "isPure": false,
                                  "lValueRequested": false,
                                  "member_name": "mint",
                                  "referencedDeclaration": 1639,
                                  "type": "function (address,uint256) external returns (bool)"
                                },
                                "children": [
                                  {
                                    "attributes": {
                                      "argumentTypes": null,
                                      "isConstant": false,
                                      "isLValue": false,
                                      "isPure": false,
                                      "isStructConstructorCall": false,
                                      "lValueRequested": false,
                                      "names": [
                                        null
                                      ],
                                      "tryCall": false,
                                      "type": "contract ERC20Mintable",
                                      "type_conversion": true
                                    },
                                    "children": [
                                      {
                                        "attributes": {
                                          "argumentTypes": [
                                            {
                                              "typeIdentifier": "t_address",
                                              "typeString": "address"
                                            }
                                          ],
                                          "overloadedDeclarations": [
                                            null
                                          ],
                                          "referencedDeclaration": 1640,
                                          "type": "type(contract ERC20Mintable)",
                                          "value": "ERC20Mintable"
                                        },
                                        "id": 1742,
                                        "name": "Identifier",
                                        "src": "698:13:14"
                                      },
                                      {
                                        "attributes": {
                                          "argumentTypes": null,
                                          "isConstant": false,
                                          "isLValue": false,
                                          "isPure": false,
                                          "isStructConstructorCall": false,
                                          "lValueRequested": false,
                                          "names": [
                                            null
                                          ],
                                          "tryCall": false,
                                          "type": "address",
                                          "type_conversion": true
                                        },
                                        "children": [
                                          {
                                            "attributes": {
                                              "argumentTypes": [
                                                {
                                                  "typeIdentifier": "t_contract$_IERC20_$997",
                                                  "typeString": "contract IERC20"
                                                }
                                              ],
                                              "isConstant": false,
                                              "isLValue": false,
                                              "isPure": true,
                                              "lValueRequested": false,
                                              "type": "type(address)"
                                            },
                                            "children": [
                                              {
                                                "attributes": {
                                                  "name": "address",
                                                  "type": null
                                                },
                                                "id": 1743,
                                                "name": "ElementaryTypeName",
                                                "src": "712:7:14"
                                              }
                                            ],
                                            "id": 1744,
                                            "name": "ElementaryTypeNameExpression",
                                            "src": "712:7:14"
                                          },
                                          {
                                            "attributes": {
                                              "argumentTypes": null,
                                              "arguments": [
                                                null
                                              ],
                                              "isConstant": false,
                                              "isLValue": false,
                                              "isPure": false,
                                              "isStructConstructorCall": false,
                                              "lValueRequested": false,
                                              "names": [
                                                null
                                              ],
                                              "tryCall": false,
                                              "type": "contract IERC20",
                                              "type_conversion": false
                                            },
                                            "children": [
                                              {
                                                "attributes": {
                                                  "argumentTypes": [
                                                    null
                                                  ],
                                                  "overloadedDeclarations": [
                                                    null
                                                  ],
                                                  "referencedDeclaration": 1435,
                                                  "type": "function () view returns (contract IERC20)",
                                                  "value": "token"
                                                },
                                                "id": 1745,
                                                "name": "Identifier",
                                                "src": "720:5:14"
                                              }
                                            ],
                                            "id": 1746,
                                            "name": "FunctionCall",
                                            "src": "720:7:14"
                                          }
                                        ],
                                        "id": 1747,
                                        "name": "FunctionCall",
                                        "src": "712:16:14"
                                      }
                                    ],
                                    "id": 1748,
                                    "name": "FunctionCall",
                                    "src": "698:31:14"
                                  }
                                ],
                                "id": 1749,
                                "name": "MemberAccess",
                                "src": "698:36:14"
                              },
                              {
                                "attributes": {
                                  "argumentTypes": null,
                                  "overloadedDeclarations": [
                                    null
                                  ],
                                  "referencedDeclaration": 1735,
                                  "type": "address",
                                  "value": "beneficiary"
                                },
                                "id": 1750,
                                "name": "Identifier",
                                "src": "735:11:14"
                              },
                              {
                                "attributes": {
                                  "argumentTypes": null,
                                  "overloadedDeclarations": [
                                    null
                                  ],
                                  "referencedDeclaration": 1737,
                                  "type": "uint256",
                                  "value": "tokenAmount"
                                },
                                "id": 1751,
                                "name": "Identifier",
                                "src": "748:11:14"
                              }
                            ],
                            "id": 1752,
                            "name": "FunctionCall",
                            "src": "698:62:14"
                          },
                          {
                            "attributes": {
                              "argumentTypes": null,
                              "hexvalue": "4d696e74656443726f776473616c653a206d696e74696e67206661696c6564",
                              "isConstant": false,
                              "isLValue": false,
                              "isPure": true,
                              "lValueRequested": false,
                              "subdenomination": null,
                              "token": "string",
                              "type": "literal_string \"MintedCrowdsale: minting failed\"",
                              "value": "MintedCrowdsale: minting failed"
                            },
                            "id": 1753,
                            "name": "Literal",
                            "src": "778:33:14"
                          }
                        ],
                        "id": 1754,
                        "name": "FunctionCall",
                        "src": "677:144:14"
                      }
                    ],
                    "id": 1755,
                    "name": "ExpressionStatement",
                    "src": "677:144:14"
                  }
                ],
                "id": 1756,
                "name": "Block",
                "src": "594:234:14"
              }
            ],
            "id": 1757,
            "name": "FunctionDefinition",
            "src": "502:326:14"
          }
        ],
        "id": 1758,
        "name": "ContractDefinition",
        "src": "271:559:14"
      }
    ],
    "id": 1759,
    "name": "SourceUnit",
    "src": "0:831:14"
  },
  "compiler": {
    "name": "solc",
    "version": "0.6.1+commit.e6f7d5a4.Emscripten.clang"
  },
  "networks": {},
  "schemaVersion": "3.4.5",
  "updatedAt": "2022-03-13T16:40:21.100Z",
  "devdoc": {
    "details": "Extension of Crowdsale contract whose tokens are minted in each purchase. Token ownership should be transferred to MintedCrowdsale for minting.",
    "methods": {
      "buyTokens(address)": {
        "details": "low level token purchase ***DO NOT OVERRIDE*** This function has a non-reentrancy guard, so it shouldn't be called by another `nonReentrant` function.",
        "params": {
          "beneficiary": "Recipient of the token purchase"
        }
      }
    },
    "title": "MintedCrowdsale"
  },
  "userdoc": {
    "methods": {}
  }
}